"Naziv knjige","Broj stranica","Autor","Godina izdanja","Kategorija"
"Paulo Coleho","55","Niđo","2022","Horor"
"Knjiga","59","Ja","2022","Triler"
"Paulo Coleho","55","Niđo","2022","Horor"
"Knjiga","59","Ja","2022","Triler"
"id","dbase","user","label","query"
"db_name","col_name","col_type","col_length","col_collation","col_isNull","col_extra","col_default"
"id","db_name","table_name","column_name","comment","mimetype","transformation","transformation_options","input_transformation","input_transformation_options"
"username","settings_data"
"id","username","export_type","template_name","template_data"
"username","tables"
"id","username","db","table","timevalue","sqlquery"
"username","item_name","item_type","db_name","table_name"
"db_name","page_nr","page_descr"
"username","tables"
"root","[{""db"":""knjiznica"",""table"":""evidencija""},{""db"":""veleuciliste"",""table"":""studenti""}]"
"master_db","master_table","master_field","foreign_db","foreign_table","foreign_field"
"id","username","db_name","search_name","search_data"
"db_name","table_name","pdf_page_number","x","y"
"db_name","table_name","display_field"
"username","db_name","table_name","prefs","last_update"
"db_name","table_name","version","date_created","date_updated","schema_snapshot","schema_sql","data_sql","tracking","tracking_active"
"username","timevalue","config_data"
,"2022-05-06 12:34:32","{""Console\/Mode"":""collapse""}"
"root","2022-05-06 12:39:16","{""Console\/Mode"":""collapse"",""DefaultConnectionCollation"":""utf8mb4_croatian_ci""}"
"usergroup","tab","allowed"
"username","usergroup"
"ID","ime","prezime","email","godina","godiste","maturaavg"
"1","Karlo","Stojanovic","kstojanovic@vub.hr","1","2002","3.00"
"2","Matija","Pucko","mpucko@vub.hr","1","2001","3.00"
