"Naziv knjige","Broj stranica","Autor","Godina izdanja","Kategorija"
"Paulo Coleho","55","Niđo","2022","Horor"
"Knjiga","59","Ja","2022","Triler"
"Paulo Coleho","55","Niđo","2022","Horor"
"Knjiga","59","Ja","2022","Triler"
